…
``` r
raw_traffic_data
#> # A tibble: 4,657,464 × 35
#>    Count_point…¹ Direc…²  Year Count_date           hour Regio…³ Regio…⁴ Regio…⁵
#>            <dbl> <chr>   <dbl> <dttm>              <dbl>   <dbl> <chr>   <chr>  
#>  1         37778 S        2011 2011-06-07 00:00:00    11      10 West M… E12000…
#>  2         37778 S        2011 2011-06-07 00:00:00    12      10 West M… E12000…
#>  3         37778 S        2011 2011-06-07 00:00:00    13      10 West M… E12000…
#>  4         37778 S        2011 2011-06-07 00:00:00    14      10 West M… E12000…
#>  5         37778 S        2011 2011-06-07 00:00:00    15      10 West M… E12000…
#>  6         37778 S        2011 2011-06-07 00:00:00    16      10 West M… E12000…
#>  7         37778 S        2011 2011-06-07 00:00:00    17      10 West M… E12000…
#>  8         37780 E        2011 2011-09-14 00:00:00     7      10 West M… E12000…
#>  9         37780 E        2011 2011-09-14 00:00:00     8      10 West M… E12000…
#> 10         37780 E        2011 2011-09-14 00:00:00     9      10 West M… E12000…
#> # … with 4,657,454 more rows, 27 more variables: Local_authority_id <dbl>,
#> #   Local_authority_name <chr>, Local_authority_code <chr>, Road_name <chr>,
#> #   Road_category <chr>, Road_type <chr>, Start_junction_road_name <chr>,
#> #   End_junction_road_name <chr>, Easting <dbl>, Northing <dbl>,
#> #   Latitude <dbl>, Longitude <dbl>, Link_length_km <dbl>,
#> #   Link_length_miles <dbl>, Pedal_cycles <dbl>,
#> #   Two_wheeled_motor_vehicles <dbl>, Cars_and_taxis <dbl>, …
```
…
